…
bind_rows(Poisson_data, Poisson_vcovHC_data, Poisson_vcovHAC_data, Neg_binomial_data) %>% 
  arrange(term)
```

```
## # A tibble: 24 × 9
##    term         estimate  std.error statistic   p.value  conf.low conf.high model           EMS_effect
##    <chr>           <dbl>      <dbl>     <dbl>     <dbl>     <dbl>     <dbl> <chr>           <chr>     
##  1 (Intercept) -1.23     0.0411        -29.9  1.18e-196 -1.31     -1.15     Poisson         0.293     
##  2 (Intercept) -1.23     0.0506        -24.3  2.85e-130 -1.33     -1.13     Poisson_vcovHC  0.293     
##  3 (Intercept) -1.23     0.0755        -16.3  1.74e- 59 -1.38     -1.08     Poisson_vcovHAC 0.293     
##  4 (Intercept) -1.37     0.0501        -27.4  5.60e-165 -1.47     -1.27     Neg_binomial    0.254     
##  5 Date         0.000225 0.00000237     94.9  0          0.000221  0.000230 Poisson         0.0225%   
##  6 Date         0.000225 0.00000294     76.7  0          0.000220  0.000231 Poisson_vcovHC  0.0225%   
##  7 Date         0.000225 0.00000443     50.9  0          0.000217  0.000234 Poisson_vcovHAC 0.0225%   
##  8 Date         0.000233 0.00000293     79.6  0          0.000227  0.000239 Neg_binomial    0.0233%   
##  9 Dst_mean    -0.000486 0.000316       -1.54 1.24e-  1 -0.00110   0.000134 Poisson         -0.0485%  
## 10 Dst_mean    -0.000486 0.000402       -1.21 2.27e-  1 -0.00127   0.000302 Poisson_vcovHC  -0.0485%  
## # ℹ 14 more rows
```
…
